\relax 
\providecommand\babel@aux[2]{}
\@nameuse{bbl@beforestart}
\catcode `"\active 
\babel@aux{catalan}{}
\@writefile{toc}{\contentsline {section}{\numberline {1}\textsc  {Raó personal}}{2}{}\protected@file@percent }
\@writefile{toc}{\contentsline {section}{\numberline {2}\textsc  {Explicació no detallada de la vàlvula}}{3}{}\protected@file@percent }
\@writefile{lof}{\contentsline {figure}{\numberline {1}{\ignorespaces Imatge de la patent original}}{3}{}\protected@file@percent }
\@writefile{toc}{\contentsline {section}{\numberline {3}\textsc  {Biografia de Nikola Tesla}}{4}{}\protected@file@percent }
\@writefile{toc}{\contentsline {section}{\numberline {4}\textsc  {El cohet V-1}}{6}{}\protected@file@percent }
\@writefile{lof}{\contentsline {figure}{\numberline {2}{\ignorespaces Missil V1 exposat al museu de guerra de Peenemünde}}{6}{}\protected@file@percent }
\@writefile{toc}{\contentsline {section}{\numberline {5}\textsc  {La valvula de Tesla}}{7}{}\protected@file@percent }
\@writefile{toc}{\contentsline {subsection}{\numberline {5.1}\textsc  {Descripcio}}{7}{}\protected@file@percent }
\@writefile{lof}{\contentsline {figure}{\numberline {3}{\ignorespaces Diagrama de corrents}}{8}{}\protected@file@percent }
\@writefile{lof}{\contentsline {figure}{\numberline {4}{\ignorespaces Funcionament d'un pulsoreactor}}{8}{}\protected@file@percent }
\@writefile{toc}{\contentsline {section}{\numberline {6}\textsc  {Desenvolupament de la valvula}}{9}{}\protected@file@percent }
\@writefile{toc}{\contentsline {subsection}{\numberline {6.1}\textsc  {Optimitzacio del disseny}}{12}{}\protected@file@percent }
\@writefile{toc}{\contentsline {subsection}{\numberline {6.2}\textsc  {Demostracio amb simulacions}}{13}{}\protected@file@percent }
\@writefile{toc}{\contentsline {section}{\numberline {7}\textsc  {Conclussio}}{14}{}\protected@file@percent }
\@writefile{toc}{\contentsline {section}{\numberline {8}\textsc  {Annexos}}{14}{}\protected@file@percent }
\@writefile{toc}{\contentsline {section}{\numberline {9}\textsc  {Bibliografia}}{14}{}\protected@file@percent }
\gdef \@abspage@last{15}
